Date,Name,Year,Letterboxd URI,Rating,Tags,Watched Date
2016-02-25,This Is Spinal Tap,1984,https://letterboxd.com/jukeboxhero/film/this-is-spinal-tap/,3,,2016-01-02
2016-02-25,Wreck-It Ralph,2012,https://letterboxd.com/jukeboxhero/film/wreck-it-ralph/,3,,2016-01-03
2016-02-28,Frozen,2013,https://letterboxd.com/jukeboxhero/film/frozen-2013/,3.5,,2016-01-06
2016-02-25,Cape Fear,1991,https://letterboxd.com/jukeboxhero/film/cape-fear-1991/,2.5,,2016-01-10
2016-01-17,The Secret of NIMH,1982,https://letterboxd.com/jukeboxhero/film/the-secret-of-nimh/,3.5,,2016-01-11
2016-01-17,Lilo & Stitch,2002,https://letterboxd.com/jukeboxhero/film/lilo-stitch/,2.5,,2016-01-12
2016-01-17,The Hunchback of Notre Dame II,2002,https://letterboxd.com/jukeboxhero/film/the-hunchback-of-notre-dame-ii/,0.5,,2016-01-12
2016-01-17,Brave,2012,https://letterboxd.com/jukeboxhero/film/brave-2012/,1.5,,2016-01-12
2016-01-17,Big Hero 6,2014,https://letterboxd.com/jukeboxhero/film/big-hero-6/,1.5,,2016-01-13
2016-01-17,Cars,2006,https://letterboxd.com/jukeboxhero/film/cars/,1.5,,2016-01-14
2016-01-17,Toy Story,1995,https://letterboxd.com/jukeboxhero/film/toy-story/,2.5,,2016-01-15
2016-01-17,The Revenant,2015,https://letterboxd.com/jukeboxhero/film/the-revenant-2015/,3,,2016-01-16
2016-01-18,Toy Story 2,1999,https://letterboxd.com/jukeboxhero/film/toy-story-2/,3,,2016-01-17
2016-01-18,Hercules,1997,https://letterboxd.com/jukeboxhero/film/hercules-1997/,1,,2016-01-17
2016-01-19,Alice in Wonderland,2010,https://letterboxd.com/jukeboxhero/film/alice-in-wonderland-2010/,1,,2016-01-17
2016-01-19,The Emperor's New Groove,2000,https://letterboxd.com/jukeboxhero/film/the-emperors-new-groove/1/,2.5,,2016-01-18
2016-01-20,Mission: Impossible - Rogue Nation,2015,https://letterboxd.com/jukeboxhero/film/mission-impossible-rogue-nation/,4,,2016-01-19
2016-01-23,Watership Down,1978,https://letterboxd.com/jukeboxhero/film/watership-down/,2.5,,2016-01-20
2016-01-23,The Secret World of Arrietty,2010,https://letterboxd.com/jukeboxhero/film/the-secret-world-of-arrietty/,2.5,,2016-01-21
2016-01-23,Toy Story 3,2010,https://letterboxd.com/jukeboxhero/film/toy-story-3/,3.5,,2016-01-22
2016-01-25,The Ridiculous 6,2015,https://letterboxd.com/jukeboxhero/film/the-ridiculous-6/,0.5,,2016-01-24
2016-01-26,Last Vegas,2013,https://letterboxd.com/jukeboxhero/film/last-vegas/,1,,2016-01-25
2016-01-30,Due Date,2010,https://letterboxd.com/jukeboxhero/film/due-date/1/,1,,2016-01-26
2016-01-28,Thelma & Louise,1991,https://letterboxd.com/jukeboxhero/film/thelma-louise/,2.5,,2016-01-27
2016-01-30,Aladdin,1992,https://letterboxd.com/jukeboxhero/film/aladdin/,3,,2016-01-28
2016-01-30,Kung Fu Panda,2008,https://letterboxd.com/jukeboxhero/film/kung-fu-panda/,2,,2016-01-29
2016-02-04,The Babadook,2014,https://letterboxd.com/jukeboxhero/film/the-babadook/,3.5,,2016-01-30
2016-02-04,Tales from Earthsea,2006,https://letterboxd.com/jukeboxhero/film/tales-from-earthsea/,2.5,,2016-01-31
2016-02-04,Knockin' on Heaven's Door,1997,https://letterboxd.com/jukeboxhero/film/knockin-on-heavens-door/,2.5,,2016-01-31
2016-02-04,Spirited Away,2001,https://letterboxd.com/jukeboxhero/film/spirited-away/,5,,2016-02-03
2016-02-07,Ponyo,2008,https://letterboxd.com/jukeboxhero/film/ponyo/,2,,2016-02-05
2016-02-10,Shrek,2001,https://letterboxd.com/jukeboxhero/film/shrek/,2,,2016-02-06
2016-02-10,Shrek 2,2004,https://letterboxd.com/jukeboxhero/film/shrek-2/,2.5,,2016-02-06
2016-02-08,Shrek the Third,2007,https://letterboxd.com/jukeboxhero/film/shrek-the-third/,1.5,,2016-02-07
2016-02-08,Shrek Forever After,2010,https://letterboxd.com/jukeboxhero/film/shrek-forever-after/,1.5,,2016-02-07
2016-02-11,A Million Ways to Die in the West,2014,https://letterboxd.com/jukeboxhero/film/a-million-ways-to-die-in-the-west/,1,,2016-02-09
2016-02-11,Deadpool,2016,https://letterboxd.com/jukeboxhero/film/deadpool/,4,,2016-02-10
2016-02-13,Wild Tales,2014,https://letterboxd.com/jukeboxhero/film/wild-tales/,3,,2016-02-12
2016-02-13,Pocahontas,1995,https://letterboxd.com/jukeboxhero/film/pocahontas/,2.5,,2016-02-12
2016-02-19,Pocahontas II: Journey to a New World,1998,https://letterboxd.com/jukeboxhero/film/pocahontas-ii-journey-to-a-new-world/,1,,2016-02-14
2016-02-19,To Rome with Love,2012,https://letterboxd.com/jukeboxhero/film/to-rome-with-love/,2.5,,2016-02-14
2016-02-19,Lady and the Tramp,1955,https://letterboxd.com/jukeboxhero/film/lady-and-the-tramp/,3,,2016-02-14
2016-02-20,The Martian,2015,https://letterboxd.com/jukeboxhero/film/the-martian/,3.5,,2016-02-19
2016-02-23,The Rescuers Down Under,1990,https://letterboxd.com/jukeboxhero/film/the-rescuers-down-under/,2,,2016-02-21
2016-02-23,Sicario,2015,https://letterboxd.com/jukeboxhero/film/sicario-2015/,4,,2016-02-21
2016-02-23,Akira,1988,https://letterboxd.com/jukeboxhero/film/akira/,2.5,,2016-02-22
2016-02-25,RED 2,2013,https://letterboxd.com/jukeboxhero/film/red-2/,1.5,,2016-02-23
2016-02-25,Aloha,2015,https://letterboxd.com/jukeboxhero/film/aloha/,2,,2016-02-23
2016-02-25,Reservoir Dogs,1992,https://letterboxd.com/jukeboxhero/film/reservoir-dogs/,3.5,,2016-02-24
2016-02-25,The Expendables,2010,https://letterboxd.com/jukeboxhero/film/the-expendables/,1,,2016-02-24
2016-03-03,Inside Out,2015,https://letterboxd.com/jukeboxhero/film/inside-out-2015/1/,4.5,,2016-02-27
2016-03-02,The Three Musketeers,2011,https://letterboxd.com/jukeboxhero/film/the-three-musketeers-2011/,1.5,,2016-02-28
2016-03-02,The Lord of the Rings: The Fellowship of the Ring,2001,https://letterboxd.com/jukeboxhero/film/the-lord-of-the-rings-the-fellowship-of-the-ring/,3,,2016-02-28
2016-03-02,The Lord of the Rings: The Two Towers,2002,https://letterboxd.com/jukeboxhero/film/the-lord-of-the-rings-the-two-towers/,3,,2016-02-29
2016-03-02,The Lord of the Rings: The Return of the King,2003,https://letterboxd.com/jukeboxhero/film/the-lord-of-the-rings-the-return-of-the-king/,3.5,,2016-03-01
2016-03-04,Unbreakable,2000,https://letterboxd.com/jukeboxhero/film/unbreakable/,3,,2016-03-03
2016-03-04,Signs,2002,https://letterboxd.com/jukeboxhero/film/signs/,2.5,,2016-03-03
2016-03-04,The Princess and the Frog,2009,https://letterboxd.com/jukeboxhero/film/the-princess-and-the-frog/,2.5,,2016-03-03
2016-03-04,Shark Tale,2004,https://letterboxd.com/jukeboxhero/film/shark-tale/,1,,2016-03-04
2016-03-06,Madagascar,2005,https://letterboxd.com/jukeboxhero/film/madagascar/,2,,2016-03-05
2016-03-06,Over the Hedge,2006,https://letterboxd.com/jukeboxhero/film/over-the-hedge/,1.5,,2016-03-05
2016-03-07,Gambit,2012,https://letterboxd.com/jukeboxhero/film/gambit-2012/,1.5,,2016-03-05
2016-03-07,Hook,1991,https://letterboxd.com/jukeboxhero/film/hook/,2,,2016-03-06
2016-03-07,Olympus Has Fallen,2013,https://letterboxd.com/jukeboxhero/film/olympus-has-fallen/,1.5,,2016-03-06
2016-03-08,Space Jam,1996,https://letterboxd.com/jukeboxhero/film/space-jam/,1.5,,2016-03-07
2016-03-09,Spirit: Stallion of the Cimarron,2002,https://letterboxd.com/jukeboxhero/film/spirit-stallion-of-the-cimarron/,2.5,,2016-03-08
2016-03-10,Still Alice,2014,https://letterboxd.com/jukeboxhero/film/still-alice/,2.5,,2016-03-08
2016-03-10,Maleficent,2014,https://letterboxd.com/jukeboxhero/film/maleficent/,2,,2016-03-09
2016-03-10,Zootopia,2016,https://letterboxd.com/jukeboxhero/film/zootopia/,4,,2016-03-09
2016-04-02,Darth Maul: Apprentice,2016,https://letterboxd.com/jukeboxhero/film/darth-maul-apprentice/,,,2016-03-09
2016-03-14,From Up on Poppy Hill,2011,https://letterboxd.com/jukeboxhero/film/from-up-on-poppy-hill/,2.5,,2016-03-10
2016-03-14,Foxcatcher,2014,https://letterboxd.com/jukeboxhero/film/foxcatcher/,2,,2016-03-11
2016-03-14,Atlantis: The Lost Empire,2001,https://letterboxd.com/jukeboxhero/film/atlantis-the-lost-empire/,2.5,,2016-03-12
2016-03-15,When Marnie Was There,2014,https://letterboxd.com/jukeboxhero/film/when-marnie-was-there/,3,,2016-03-13
2016-03-15,John Carter,2012,https://letterboxd.com/jukeboxhero/film/john-carter/,1.5,,2016-03-14
2016-03-15,Mulan II,2004,https://letterboxd.com/jukeboxhero/film/mulan-ii/,1,,2016-03-14
2016-03-16,The Legend of Hercules,2014,https://letterboxd.com/jukeboxhero/film/the-legend-of-hercules/,1,,2016-03-15
2016-03-17,Spectre,2015,https://letterboxd.com/jukeboxhero/film/spectre-2015/,2.5,,2016-03-15
2016-11-18,Sharknado,2013,https://letterboxd.com/jukeboxhero/film/sharknado/1/,0.5,,2016-03-15
2016-11-18,Sharknado 3: Oh Hell No!,2015,https://letterboxd.com/jukeboxhero/film/sharknado-3-oh-hell-no/1/,0.5,,2016-03-16
2016-11-18,Sharknado 2: The Second One,2014,https://letterboxd.com/jukeboxhero/film/sharknado-2-the-second-one/1/,0.5,,2016-03-16
2016-03-19,Gran Torino,2008,https://letterboxd.com/jukeboxhero/film/gran-torino/,3.5,,2016-03-18
2016-03-21,Spider-Man,2002,https://letterboxd.com/jukeboxhero/film/spider-man/,3,,2016-03-19
2016-11-18,Summer Wars,2009,https://letterboxd.com/jukeboxhero/film/summer-wars/1/,2.5,,2016-03-20
2016-03-22,Ghost in the Shell,1995,https://letterboxd.com/jukeboxhero/film/ghost-in-the-shell/,3.5,,2016-03-21
2016-11-18,The Girl Who Leapt Through Time,2006,https://letterboxd.com/jukeboxhero/film/the-girl-who-leapt-through-time/1/,3,,2016-03-21
2016-03-24,The Hunger Games: Mockingjay - Part 2,2015,https://letterboxd.com/jukeboxhero/film/the-hunger-games-mockingjay-part-2/,2,,2016-03-22
2016-11-18,Millennium Actress,2001,https://letterboxd.com/jukeboxhero/film/millennium-actress/1/,3.5,,2016-03-23
2016-11-18,Perfect Blue,1997,https://letterboxd.com/jukeboxhero/film/perfect-blue/1/,4.5,,2016-03-23
2016-03-26,Kung Fury,2015,https://letterboxd.com/jukeboxhero/film/kung-fury/,,,2016-03-26
2016-03-27,Rango,2011,https://letterboxd.com/jukeboxhero/film/rango/,2,,2016-03-26
2016-03-27,Brother Bear,2003,https://letterboxd.com/jukeboxhero/film/brother-bear/,2,,2016-03-27
2016-03-28,The Other Woman,2014,https://letterboxd.com/jukeboxhero/film/the-other-woman-2014/,1,,2016-03-27
2016-04-01,The Monuments Men,2014,https://letterboxd.com/jukeboxhero/film/the-monuments-men/,2,,2016-03-28
2016-03-30,Batman v Superman: Dawn of Justice,2016,https://letterboxd.com/jukeboxhero/film/batman-v-superman-dawn-of-justice/,3,,2016-03-29
2016-04-01,Drive,2011,https://letterboxd.com/jukeboxhero/film/drive-2011/,3,,2016-03-30
2016-04-01,Escobar: Paradise Lost,2014,https://letterboxd.com/jukeboxhero/film/escobar-paradise-lost/,2.5,,2016-03-31
2016-04-02,47 Ronin,2013,https://letterboxd.com/jukeboxhero/film/47-ronin-2013/,2,,2016-04-01
2016-04-02,Ride Along,2014,https://letterboxd.com/jukeboxhero/film/ride-along/,1,,2016-04-01
2016-04-03,Only Yesterday,1991,https://letterboxd.com/jukeboxhero/film/only-yesterday/,2.5,,2016-04-02
2016-04-03,Tokyo Godfathers,2003,https://letterboxd.com/jukeboxhero/film/tokyo-godfathers/,3,,2016-04-02
2016-04-03,Paprika,2006,https://letterboxd.com/jukeboxhero/film/paprika-2006/,4,,2016-04-03
2016-04-04,Room,2015,https://letterboxd.com/jukeboxhero/film/room-2015/,4.5,,2016-04-03
2016-04-06,Spring Breakers,2012,https://letterboxd.com/jukeboxhero/film/spring-breakers/,2,,2016-04-05
2016-04-06,Kung Fu Panda 2,2011,https://letterboxd.com/jukeboxhero/film/kung-fu-panda-2/,3.5,,2016-04-05
2016-04-07,Megamind,2010,https://letterboxd.com/jukeboxhero/film/megamind/,2,,2016-04-06
2016-04-10,The Jungle Book,1967,https://letterboxd.com/jukeboxhero/film/the-jungle-book/,2,,2016-04-08
2016-04-13,Short Term 12,2013,https://letterboxd.com/jukeboxhero/film/short-term-12-2013/,3,,2016-04-12
2016-04-13,Iron Sky,2012,https://letterboxd.com/jukeboxhero/film/iron-sky/,1.5,,2016-04-13
2016-04-15,The Spectacular Now,2013,https://letterboxd.com/jukeboxhero/film/the-spectacular-now/,2.5,,2016-04-14
2016-04-17,Hannah Montana: The Movie,2009,https://letterboxd.com/jukeboxhero/film/hannah-montana-the-movie/,1,,2016-04-16
2016-04-18,When Harry Met Sally...,1989,https://letterboxd.com/jukeboxhero/film/when-harry-met-sally/,3,,2016-04-17
2016-04-19,Divergent,2014,https://letterboxd.com/jukeboxhero/film/divergent/,2,,2016-04-18
2016-04-20,Punch-Drunk Love,2002,https://letterboxd.com/jukeboxhero/film/punch-drunk-love/,3,,2016-04-19
2016-04-21,Oldboy,2003,https://letterboxd.com/jukeboxhero/film/oldboy/,3.5,,2016-04-20
2016-04-25,The Ghost Writer,2010,https://letterboxd.com/jukeboxhero/film/the-ghost-writer/,3.5,,2016-04-22
2016-04-25,Enchanted,2007,https://letterboxd.com/jukeboxhero/film/enchanted/,2,,2016-04-23
2016-04-25,Raising Arizona,1987,https://letterboxd.com/jukeboxhero/film/raising-arizona/1/,4,,2016-04-24
2016-04-25,The Gunman,2015,https://letterboxd.com/jukeboxhero/film/the-gunman-2015/,1.5,,2016-04-24
2016-04-28,Captain America: The Winter Soldier,2014,https://letterboxd.com/jukeboxhero/film/captain-america-the-winter-soldier/,4,,2016-04-26
2016-04-28,Captain America: Civil War,2016,https://letterboxd.com/jukeboxhero/film/captain-america-civil-war/,4.5,,2016-04-27
2016-05-02,Big Eyes,2014,https://letterboxd.com/jukeboxhero/film/big-eyes/,2.5,,2016-04-28
2016-05-02,Star Wars: The Force Awakens,2015,https://letterboxd.com/jukeboxhero/film/star-wars-the-force-awakens/,4,,2016-04-30
2016-05-02,Godzilla,2014,https://letterboxd.com/jukeboxhero/film/godzilla-2014/,2.5,,2016-05-01
2016-05-05,Mulholland Drive,2001,https://letterboxd.com/jukeboxhero/film/mulholland-drive/,3.5,,2016-05-04
2016-05-06,RoboCop,1987,https://letterboxd.com/jukeboxhero/film/robocop/,2,,2016-05-05
2016-05-06,Straight Outta Compton,2015,https://letterboxd.com/jukeboxhero/film/straight-outta-compton/,2.5,,2016-05-05
2016-05-07,Magnolia,1999,https://letterboxd.com/jukeboxhero/film/magnolia/,3,,2016-05-06
2016-05-08,Her,2013,https://letterboxd.com/jukeboxhero/film/her/,5,,2016-05-07
2016-05-09,Southpaw,2015,https://letterboxd.com/jukeboxhero/film/southpaw-2015/,3.5,,2016-05-08
2016-05-11,The Magnificent Seven,1960,https://letterboxd.com/jukeboxhero/film/the-magnificent-seven/,3,,2016-05-09
2016-05-12,Inherent Vice,2014,https://letterboxd.com/jukeboxhero/film/inherent-vice/,3.5,,2016-05-11
2016-05-13,Batman: Mask of the Phantasm,1993,https://letterboxd.com/jukeboxhero/film/batman-mask-of-the-phantasm/,4,,2016-05-12
2016-05-13,Bicycle Thieves,1948,https://letterboxd.com/jukeboxhero/film/bicycle-thieves/,3,,2016-05-12
2016-05-16,Nausicaä of the Valley of the Wind,1984,https://letterboxd.com/jukeboxhero/film/nausicaa-of-the-valley-of-the-wind/,4,,2016-05-14
2016-05-16,Kiki's Delivery Service,1989,https://letterboxd.com/jukeboxhero/film/kikis-delivery-service/,3.5,,2016-05-15
2016-05-18,Porco Rosso,1992,https://letterboxd.com/jukeboxhero/film/porco-rosso/,3,,2016-05-16
2016-05-18,The Land Before Time,1988,https://letterboxd.com/jukeboxhero/film/the-land-before-time/,2.5,,2016-05-17
2016-05-18,An American Tail,1986,https://letterboxd.com/jukeboxhero/film/an-american-tail/,2,,2016-05-17
2016-05-19,Lucy,2014,https://letterboxd.com/jukeboxhero/film/lucy-2014/,2,,2016-05-18
2016-05-20,Terminator Genisys,2015,https://letterboxd.com/jukeboxhero/film/terminator-genisys/,1.5,,2016-05-19
2016-05-21,Mad Max,1979,https://letterboxd.com/jukeboxhero/film/mad-max/,2.5,,2016-05-20
2016-05-21,Mad Max 2: The Road Warrior,1981,https://letterboxd.com/jukeboxhero/film/mad-max-2-the-road-warrior/,3,,2016-05-20
2016-05-21,Mad Max Beyond Thunderdome,1985,https://letterboxd.com/jukeboxhero/film/mad-max-beyond-thunderdome/,2.5,,2016-05-20
2016-05-21,Mad Max: Fury Road,2015,https://letterboxd.com/jukeboxhero/film/mad-max-fury-road/,4,,2016-05-20
2016-05-22,X-Men: Apocalypse,2016,https://letterboxd.com/jukeboxhero/film/x-men-apocalypse/,3,,2016-05-21
2016-05-23,Clerks,1994,https://letterboxd.com/jukeboxhero/film/clerks/,3,,2016-05-22
2016-05-23,X-Men,2000,https://letterboxd.com/jukeboxhero/film/x-men/,3.5,,2016-05-22
2016-05-23,X2,2003,https://letterboxd.com/jukeboxhero/film/x2/,4,,2016-05-22
2016-05-24,X-Men: The Last Stand,2006,https://letterboxd.com/jukeboxhero/film/x-men-the-last-stand/,2,,2016-05-23
2016-05-25,The Incredibles,2004,https://letterboxd.com/jukeboxhero/film/the-incredibles/,3.5,,2016-05-24
2016-05-27,Steve Jobs,2015,https://letterboxd.com/jukeboxhero/film/steve-jobs/,3.5,,2016-05-25
2016-05-27,Carol,2015,https://letterboxd.com/jukeboxhero/film/carol-2015/,3,,2016-05-26
2016-05-29,Rock of Ages,2012,https://letterboxd.com/jukeboxhero/film/rock-of-ages/,3,,2016-05-29
2016-05-31,Sex Tape,2014,https://letterboxd.com/jukeboxhero/film/sex-tape/,1,,2016-05-30
2016-06-01,Samurai Cop,1991,https://letterboxd.com/jukeboxhero/film/samurai-cop/,0.5,,2016-05-31
2016-06-02,The Nice Guys,2016,https://letterboxd.com/jukeboxhero/film/the-nice-guys/,4.5,,2016-06-01
2016-06-03,Scary Movie,2000,https://letterboxd.com/jukeboxhero/film/scary-movie-2000/,1,,2016-06-02
2016-06-07,Paper Towns,2015,https://letterboxd.com/jukeboxhero/film/paper-towns/,3,,2016-06-06
2016-06-08,22 Jump Street,2014,https://letterboxd.com/jukeboxhero/film/22-jump-street/,2,,2016-06-07
2016-06-09,Joy,2015,https://letterboxd.com/jukeboxhero/film/joy-2015/,3,,2016-06-08
2016-06-09,Stand by Me,1986,https://letterboxd.com/jukeboxhero/film/stand-by-me/,2.5,,2016-06-08
2016-06-10,The Big Short,2015,https://letterboxd.com/jukeboxhero/film/the-big-short/,4,,2016-06-09
2016-06-11,Gangs of New York,2002,https://letterboxd.com/jukeboxhero/film/gangs-of-new-york-2002/,3.5,,2016-06-10
2016-06-11,Look Who's Back,2015,https://letterboxd.com/jukeboxhero/film/look-whos-back-2015/,2.5,,2016-06-10
2016-06-12,The Do-Over,2016,https://letterboxd.com/jukeboxhero/film/the-do-over/,1,,2016-06-11
2016-06-12,The Great Dictator,1940,https://letterboxd.com/jukeboxhero/film/the-great-dictator/,3,,2016-06-11
2016-06-13,The French Connection,1971,https://letterboxd.com/jukeboxhero/film/the-french-connection/,2.5,,2016-06-12
2016-06-13,Lord of War,2005,https://letterboxd.com/jukeboxhero/film/lord-of-war/,5,,2016-06-12
2016-06-14,Saving Mr. Banks,2013,https://letterboxd.com/jukeboxhero/film/saving-mr-banks/,3,,2016-06-13
2016-06-16,American Gangster,2007,https://letterboxd.com/jukeboxhero/film/american-gangster/,3.5,,2016-06-14
2016-06-16,The Grand Budapest Hotel,2014,https://letterboxd.com/jukeboxhero/film/the-grand-budapest-hotel/,4,,2016-06-15
2016-06-16,The Secret in Their Eyes,2009,https://letterboxd.com/jukeboxhero/film/the-secret-in-their-eyes/,3.5,,2016-06-15
2016-06-17,Only God Forgives,2013,https://letterboxd.com/jukeboxhero/film/only-god-forgives/,2.5,,2016-06-16
2016-06-21,Apocalypse Now,1979,https://letterboxd.com/jukeboxhero/film/apocalypse-now/,4.5,,2016-06-20
2016-06-22,Birdman,2014,https://letterboxd.com/jukeboxhero/film/birdman/,4.5,,2016-06-21
2016-06-23,Cloverfield,2008,https://letterboxd.com/jukeboxhero/film/cloverfield/,1,,2016-06-22
2016-06-24,Anomalisa,2015,https://letterboxd.com/jukeboxhero/film/anomalisa/,3,,2016-06-23
2016-06-25,Bridge of Spies,2015,https://letterboxd.com/jukeboxhero/film/bridge-of-spies/,3.5,,2016-06-24
2016-06-26,The Danish Girl,2015,https://letterboxd.com/jukeboxhero/film/the-danish-girl/,2.5,,2016-06-25
2016-06-27,The Wrestler,2008,https://letterboxd.com/jukeboxhero/film/the-wrestler/,3,,2016-06-25
2016-06-27,La Haine,1995,https://letterboxd.com/jukeboxhero/film/la-haine/,3.5,,2016-06-26
2016-06-27,Deadpool,2016,https://letterboxd.com/jukeboxhero/film/deadpool/1/,4,,2016-06-26
2016-06-29,Dumbo,1941,https://letterboxd.com/jukeboxhero/film/dumbo/1/,2,,2016-06-26
2016-06-29,Blended,2014,https://letterboxd.com/jukeboxhero/film/blended/,1.5,,2016-06-28
2016-07-05,The Brothers Bloom,2008,https://letterboxd.com/jukeboxhero/film/the-brothers-bloom/,3,,2016-06-29
2016-07-05,Brooklyn,2015,https://letterboxd.com/jukeboxhero/film/brooklyn/,2.5,,2016-07-03
2016-07-05,Fight Club,1999,https://letterboxd.com/jukeboxhero/film/fight-club/,5,,2016-07-04
2016-07-06,Se7en,1995,https://letterboxd.com/jukeboxhero/film/se7en/,5,,2016-07-05
2016-07-07,The Adventures of Buckaroo Banzai Across the 8th Dimension,1984,https://letterboxd.com/jukeboxhero/film/the-adventures-of-buckaroo-banzai-across-the-8th-dimension/,1.5,,2016-07-06
2016-07-08,Tammy,2014,https://letterboxd.com/jukeboxhero/film/tammy/,1,,2016-07-07
2016-07-08,Hercules,2014,https://letterboxd.com/jukeboxhero/film/hercules-2014/,2,,2016-07-07
2016-07-09,Spotlight,2015,https://letterboxd.com/jukeboxhero/film/spotlight/,4,,2016-07-08
2016-07-10,Fearless,2006,https://letterboxd.com/jukeboxhero/film/fearless-2006/1/,2.5,,2016-07-08
2016-07-10,Pan's Labyrinth,2006,https://letterboxd.com/jukeboxhero/film/pans-labyrinth/,3.5,,2016-07-09
2016-07-11,Victoria,2015,https://letterboxd.com/jukeboxhero/film/victoria-2015/,3,,2016-07-10
2016-07-12,The Adjustment Bureau,2011,https://letterboxd.com/jukeboxhero/film/the-adjustment-bureau/,2.5,,2016-07-10
2016-07-13,My Big Fat Greek Wedding,2002,https://letterboxd.com/jukeboxhero/film/my-big-fat-greek-wedding/,2,,2016-07-11
2016-07-13,The Hateful Eight,2015,https://letterboxd.com/jukeboxhero/film/the-hateful-eight/,3,,2016-07-12
2016-07-14,Dinner for Schmucks,2010,https://letterboxd.com/jukeboxhero/film/dinner-for-schmucks/,2,,2016-07-13
2016-07-15,Scent of a Woman,1992,https://letterboxd.com/jukeboxhero/film/scent-of-a-woman/,3,,2016-07-14
2016-07-19,Bridesmaids,2011,https://letterboxd.com/jukeboxhero/film/bridesmaids/1/,2,,2016-07-17
2016-07-19,Equilibrium,2002,https://letterboxd.com/jukeboxhero/film/equilibrium/1/,2.5,,2016-07-17
2016-07-19,UHF,1989,https://letterboxd.com/jukeboxhero/film/uhf/,3.5,,2016-07-18
2016-07-21,Dr. Strangelove or: How I Learned to Stop Worrying and Love the Bomb,1964,https://letterboxd.com/jukeboxhero/film/dr-strangelove-or-how-i-learned-to-stop-worrying-and-love-the-bomb/,5,,2016-07-19
2016-07-21,Layer Cake,2004,https://letterboxd.com/jukeboxhero/film/layer-cake/,3,,2016-07-20
2016-07-22,Captain Phillips,2013,https://letterboxd.com/jukeboxhero/film/captain-phillips/,3.5,,2016-07-21
2016-07-23,Zootopia,2016,https://letterboxd.com/jukeboxhero/film/zootopia/2/,4,,2016-07-22
2016-07-26,The Good Dinosaur,2015,https://letterboxd.com/jukeboxhero/film/the-good-dinosaur/,2,,2016-07-25
2016-07-28,Les Misérables,2012,https://letterboxd.com/jukeboxhero/film/les-miserables-2012/,3,,2016-07-26
2016-07-28,Whiplash,2014,https://letterboxd.com/jukeboxhero/film/whiplash-2014/,5,,2016-07-27
2016-08-01,Pacific Rim,2013,https://letterboxd.com/jukeboxhero/film/pacific-rim/,2.5,,2016-07-31
2016-08-02,The Wolf of Wall Street,2013,https://letterboxd.com/jukeboxhero/film/the-wolf-of-wall-street/,4.5,,2016-08-01
2016-08-03,Sin City: A Dame to Kill For,2014,https://letterboxd.com/jukeboxhero/film/sin-city-a-dame-to-kill-for/,1.5,,2016-08-02
2016-08-05,Dumb and Dumber To,2014,https://letterboxd.com/jukeboxhero/film/dumb-and-dumber-to/,1,,2016-08-03
2016-08-05,21 Grams,2003,https://letterboxd.com/jukeboxhero/film/21-grams/,2.5,,2016-08-04
2016-08-06,Star Trek Beyond,2016,https://letterboxd.com/jukeboxhero/film/star-trek-beyond/,2.5,,2016-08-05
2016-08-07,Star Trek: The Motion Picture,1979,https://letterboxd.com/jukeboxhero/film/star-trek-the-motion-picture/,2,,2016-08-06
2016-08-07,Star Trek II: The Wrath of Khan,1982,https://letterboxd.com/jukeboxhero/film/star-trek-ii-the-wrath-of-khan/,3.5,,2016-08-06
2016-08-07,Star Trek III: The Search for Spock,1984,https://letterboxd.com/jukeboxhero/film/star-trek-iii-the-search-for-spock/,2,,2016-08-06
2016-08-08,Star Trek IV: The Voyage Home,1986,https://letterboxd.com/jukeboxhero/film/star-trek-iv-the-voyage-home/,3,,2016-08-07
2016-08-08,Star Trek V: The Final Frontier,1989,https://letterboxd.com/jukeboxhero/film/star-trek-v-the-final-frontier/,1.5,,2016-08-07
2016-08-09,Star Trek VI: The Undiscovered Country,1991,https://letterboxd.com/jukeboxhero/film/star-trek-vi-the-undiscovered-country/,3.5,,2016-08-08
2016-08-18,"Hail, Caesar!",2016,https://letterboxd.com/jukeboxhero/film/hail-caesar-2016/,3.5,,2016-08-16
2016-08-18,Up,2009,https://letterboxd.com/jukeboxhero/film/up/,3.5,,2016-08-17
2016-08-19,The Man from U.N.C.L.E.,2015,https://letterboxd.com/jukeboxhero/film/the-man-from-uncle/,3,,2016-08-18
2016-08-20,Coraline,2009,https://letterboxd.com/jukeboxhero/film/coraline/,4,,2016-08-19
2016-08-20,The Boxtrolls,2014,https://letterboxd.com/jukeboxhero/film/the-boxtrolls/,3,,2016-08-19
2016-08-20,Paddington,2014,https://letterboxd.com/jukeboxhero/film/paddington/,1.5,,2016-08-19
2016-08-21,The Boy and the Beast,2015,https://letterboxd.com/jukeboxhero/film/the-boy-and-the-beast/,2.5,,2016-08-20
2016-08-21,Irrational Man,2015,https://letterboxd.com/jukeboxhero/film/irrational-man/,3,,2016-08-20
2016-08-22,The Legend of Drunken Master,1994,https://letterboxd.com/jukeboxhero/film/the-legend-of-drunken-master/,3.5,,2016-08-21
2016-08-23,Training Day,2001,https://letterboxd.com/jukeboxhero/film/training-day/,3,,2016-08-22
2016-08-24,ParaNorman,2012,https://letterboxd.com/jukeboxhero/film/paranorman/,3.5,,2016-08-23
2016-08-26,Kung Fu Panda 3,2016,https://letterboxd.com/jukeboxhero/film/kung-fu-panda-3/,3,,2016-08-25
2016-08-26,In the Mood for Love,2000,https://letterboxd.com/jukeboxhero/film/in-the-mood-for-love/,3,,2016-08-25
2016-08-27,Star Trek: Generations,1994,https://letterboxd.com/jukeboxhero/film/star-trek-generations/,2.5,,2016-08-26
2016-08-27,Cast Away,2000,https://letterboxd.com/jukeboxhero/film/cast-away/,3,,2016-08-26
2016-08-27,The International,2009,https://letterboxd.com/jukeboxhero/film/the-international/,3,,2016-08-26
2016-08-28,Cool Cat Saves the Kids,2015,https://letterboxd.com/jukeboxhero/film/cool-cat-saves-the-kids/,0.5,,2016-08-27
2016-08-28,Star Trek: First Contact,1996,https://letterboxd.com/jukeboxhero/film/star-trek-first-contact/,3.5,,2016-08-27
2016-08-28,Star Trek: Insurrection,1998,https://letterboxd.com/jukeboxhero/film/star-trek-insurrection/,2,,2016-08-27
2016-09-01,Batman: The Killing Joke,2016,https://letterboxd.com/jukeboxhero/film/batman-the-killing-joke-2016/,3,,2016-08-31
2016-09-03,Star Trek: Nemesis,2002,https://letterboxd.com/jukeboxhero/film/star-trek-nemesis/,2,,2016-09-01
2016-09-06,Spirited Away,2001,https://letterboxd.com/jukeboxhero/film/spirited-away/1/,5,,2016-09-05
2016-09-07,Zombieland,2009,https://letterboxd.com/jukeboxhero/film/zombieland/,3.5,,2016-09-06
2016-09-07,Transcendence,2014,https://letterboxd.com/jukeboxhero/film/transcendence/,1.5,,2016-09-06
2016-09-07,The Blair Witch Project,1999,https://letterboxd.com/jukeboxhero/film/the-blair-witch-project/,2,,2016-09-07
2016-09-09,Trumbo,2015,https://letterboxd.com/jukeboxhero/film/trumbo/,3,,2016-09-08
2016-09-10,Bambi,1942,https://letterboxd.com/jukeboxhero/film/bambi/,2.5,,2016-09-09
2016-09-10,Melancholia,2011,https://letterboxd.com/jukeboxhero/film/melancholia/,2.5,,2016-09-09
2016-09-10,Elektra,2005,https://letterboxd.com/jukeboxhero/film/elektra/,1,,2016-09-09
2016-09-11,Hulk,2003,https://letterboxd.com/jukeboxhero/film/hulk/,1.5,,2016-09-10
2016-09-11,Hellboy,2004,https://letterboxd.com/jukeboxhero/film/hellboy/,2.5,,2016-09-10
2016-09-11,Hellboy II: The Golden Army,2008,https://letterboxd.com/jukeboxhero/film/hellboy-ii-the-golden-army/,2.5,,2016-09-10
2016-09-12,Catwoman,2004,https://letterboxd.com/jukeboxhero/film/catwoman/,0.5,,2016-09-11
2016-09-12,The Expendables 3,2014,https://letterboxd.com/jukeboxhero/film/the-expendables-3/,1,,2016-09-11
2016-09-13,Air Force One,1997,https://letterboxd.com/jukeboxhero/film/air-force-one/,2.5,,2016-09-12
2016-09-14,Batman & Robin,1997,https://letterboxd.com/jukeboxhero/film/batman-robin/,0.5,,2016-09-13
2016-09-14,Showgirls,1995,https://letterboxd.com/jukeboxhero/film/showgirls/,,,2016-09-13
2016-09-15,The Lost World: Jurassic Park,1997,https://letterboxd.com/jukeboxhero/film/the-lost-world-jurassic-park/,2,,2016-09-14
2016-09-15,Jurassic Park III,2001,https://letterboxd.com/jukeboxhero/film/jurassic-park-iii/,1,,2016-09-14
2016-09-19,Chinatown,1974,https://letterboxd.com/jukeboxhero/film/chinatown/,3,,2016-09-16
2016-09-24,Shattered Glass,2003,https://letterboxd.com/jukeboxhero/film/shattered-glass/,3.5,,2016-09-22
2016-09-26,Double Indemnity,1944,https://letterboxd.com/jukeboxhero/film/double-indemnity/,3,,2016-09-25
2016-09-27,Fuck You Goethe 2,2015,https://letterboxd.com/jukeboxhero/film/fuck-you-goethe-2/,2,,2016-09-26
2016-09-27,Zoolander 2,2016,https://letterboxd.com/jukeboxhero/film/zoolander-2/,1.5,,2016-09-26
2016-09-28,Beetlejuice,1988,https://letterboxd.com/jukeboxhero/film/beetlejuice/,3.5,,2016-09-27
2016-09-29,Clueless,1995,https://letterboxd.com/jukeboxhero/film/clueless/,3,,2016-09-27
2016-09-29,Ernest & Celestine,2012,https://letterboxd.com/jukeboxhero/film/ernest-celestine/,3.5,,2016-09-28
2016-10-01,Mad Max: Fury Road,2015,https://letterboxd.com/jukeboxhero/film/mad-max-fury-road/1/,4.5,,2016-09-30
2016-10-01,Lincoln,2012,https://letterboxd.com/jukeboxhero/film/lincoln/,2.5,,2016-09-30
2016-10-02,Harry Potter and the Philosopher's Stone,2001,https://letterboxd.com/jukeboxhero/film/harry-potter-and-the-philosophers-stone/,3,,2016-10-01
2016-10-02,Harry Potter and the Chamber of Secrets,2002,https://letterboxd.com/jukeboxhero/film/harry-potter-and-the-chamber-of-secrets/,3,,2016-10-01
2016-10-03,Harry Potter and the Prisoner of Azkaban,2004,https://letterboxd.com/jukeboxhero/film/harry-potter-and-the-prisoner-of-azkaban/,3.5,,2016-10-02
2016-10-03,Harry Potter and the Goblet of Fire,2005,https://letterboxd.com/jukeboxhero/film/harry-potter-and-the-goblet-of-fire/,2.5,,2016-10-02
2016-10-03,Harry Potter and the Order of the Phoenix,2007,https://letterboxd.com/jukeboxhero/film/harry-potter-and-the-order-of-the-phoenix/,2,,2016-10-02
2016-10-04,Harry Potter and the Half-Blood Prince,2009,https://letterboxd.com/jukeboxhero/film/harry-potter-and-the-half-blood-prince/,1.5,,2016-10-03
2016-10-10,The Big Lebowski,1998,https://letterboxd.com/jukeboxhero/film/the-big-lebowski/,5,,2016-10-05
2016-10-10,Requiem for a Dream,2000,https://letterboxd.com/jukeboxhero/film/requiem-for-a-dream/,5,,2016-10-06
2016-10-08,Harry Potter and the Deathly Hallows: Part 1,2010,https://letterboxd.com/jukeboxhero/film/harry-potter-and-the-deathly-hallows-part-1/,1.5,,2016-10-07
2016-10-17,Harry Potter and the Deathly Hallows: Part 2,2011,https://letterboxd.com/jukeboxhero/film/harry-potter-and-the-deathly-hallows-part-2/,2,,2016-10-08
2016-10-13,Citizenfour,2014,https://letterboxd.com/jukeboxhero/film/citizenfour/,,,2016-10-12
2016-10-14,Jumper,2008,https://letterboxd.com/jukeboxhero/film/jumper/,2,,2016-10-13
2016-10-17,Finding Nemo,2003,https://letterboxd.com/jukeboxhero/film/finding-nemo/,2.5,,2016-10-14
2016-10-17,The People vs. Fritz Bauer,2015,https://letterboxd.com/jukeboxhero/film/the-people-vs-fritz-bauer/,2.5,,2016-10-15
2016-10-17,Red Heat,1988,https://letterboxd.com/jukeboxhero/film/red-heat/,2,,2016-10-16
2016-10-18,Sing Street,2016,https://letterboxd.com/jukeboxhero/film/sing-street/,4,,2016-10-17
2016-10-19,Pumping Iron,1977,https://letterboxd.com/jukeboxhero/film/pumping-iron/,,,2016-10-18
2016-10-20,The Matrix,1999,https://letterboxd.com/jukeboxhero/film/the-matrix/,4,,2016-10-19
2016-10-21,The Matrix Reloaded,2003,https://letterboxd.com/jukeboxhero/film/the-matrix-reloaded/,2,,2016-10-20
2016-10-21,The Matrix Revolutions,2003,https://letterboxd.com/jukeboxhero/film/the-matrix-revolutions/,2.5,,2016-10-20
2016-10-22,Pinocchio,1940,https://letterboxd.com/jukeboxhero/film/pinocchio/,2.5,,2016-10-22
2016-10-23,Inferno,2016,https://letterboxd.com/jukeboxhero/film/inferno-2016/,2.5,,2016-10-22
2016-10-24,Conan the Barbarian,1982,https://letterboxd.com/jukeboxhero/film/conan-the-barbarian/,3,,2016-10-23
2016-10-24,Scarface,1983,https://letterboxd.com/jukeboxhero/film/scarface-1983/,3.5,,2016-10-23
2016-10-25,"Good Morning, Vietnam",1987,https://letterboxd.com/jukeboxhero/film/good-morning-vietnam/,3,,2016-10-24
2016-10-25,Payback,1999,https://letterboxd.com/jukeboxhero/film/payback/,2.5,,2016-10-24
2016-10-26,The Terminator,1984,https://letterboxd.com/jukeboxhero/film/the-terminator/,3.5,,2016-10-25
2016-10-26,Terminator 2: Judgment Day,1991,https://letterboxd.com/jukeboxhero/film/terminator-2-judgment-day/,5,,2016-10-25
2016-10-27,The Thing,1982,https://letterboxd.com/jukeboxhero/film/the-thing/,3,,2016-10-26
2016-10-28,Doctor Strange,2016,https://letterboxd.com/jukeboxhero/film/doctor-strange-2016/,3,,2016-10-27
2016-11-03,Rocky,1976,https://letterboxd.com/jukeboxhero/film/rocky/,2.5,,2016-11-02
2016-11-03,Rocky II,1979,https://letterboxd.com/jukeboxhero/film/rocky-ii/,1.5,,2016-11-02
2016-11-03,Rocky III,1982,https://letterboxd.com/jukeboxhero/film/rocky-iii/,2,,2016-11-02
2016-11-03,Rocky IV,1985,https://letterboxd.com/jukeboxhero/film/rocky-iv/,1.5,,2016-11-02
2016-11-04,Rocky V,1990,https://letterboxd.com/jukeboxhero/film/rocky-v/,1,,2016-11-03
2016-11-04,Rocky Balboa,2006,https://letterboxd.com/jukeboxhero/film/rocky-balboa/,2.5,,2016-11-03
2016-11-04,Creed,2015,https://letterboxd.com/jukeboxhero/film/creed/,3,,2016-11-03
2016-11-05,Cliffhanger,1993,https://letterboxd.com/jukeboxhero/film/cliffhanger/,2,,2016-11-04
2016-11-05,Under Siege,1992,https://letterboxd.com/jukeboxhero/film/under-siege/,2.5,,2016-11-04
2016-11-06,Predator,1987,https://letterboxd.com/jukeboxhero/film/predator/,4.5,,2016-11-05
2016-11-06,V for Vendetta,2005,https://letterboxd.com/jukeboxhero/film/v-for-vendetta/,5,,2016-11-05
2016-11-06,Central Intelligence,2016,https://letterboxd.com/jukeboxhero/film/central-intelligence/,2.5,,2016-11-05
2016-11-06,Kickboxer,1989,https://letterboxd.com/jukeboxhero/film/kickboxer/,2,,2016-11-05
2016-11-07,The Nice Guys,2016,https://letterboxd.com/jukeboxhero/film/the-nice-guys/1/,4.5,,2016-11-06
2016-11-07,Road to Perdition,2002,https://letterboxd.com/jukeboxhero/film/road-to-perdition/,3.5,,2016-11-06
2016-11-08,Money Monster,2016,https://letterboxd.com/jukeboxhero/film/money-monster/,2.5,,2016-11-07
2016-11-11,Snitch,2013,https://letterboxd.com/jukeboxhero/film/snitch/,2.5,,2016-11-10
2016-11-11,Lammbock,2001,https://letterboxd.com/jukeboxhero/film/lammbock/,2.5,,2016-11-10
2016-11-12,"Synecdoche, New York",2008,https://letterboxd.com/jukeboxhero/film/synecdoche-new-york/,4.5,,2016-11-11
2016-11-13,The Fox and the Hound,1981,https://letterboxd.com/jukeboxhero/film/the-fox-and-the-hound/,2,,2016-11-12
2016-11-14,Monty Python and the Holy Grail,1975,https://letterboxd.com/jukeboxhero/film/monty-python-and-the-holy-grail/,3.5,,2016-11-13
2016-11-14,Life of Brian,1979,https://letterboxd.com/jukeboxhero/film/life-of-brian/,3.5,,2016-11-13
2016-11-14,"The KGB, the Computer and Me",1990,https://letterboxd.com/jukeboxhero/film/the-kgb-the-computer-and-me/,,,2016-11-14
2016-11-15,The Meaning of Life,1983,https://letterboxd.com/jukeboxhero/film/the-meaning-of-life-1983/,2.5,,2016-11-14
2016-11-16,The Jungle Book,2016,https://letterboxd.com/jukeboxhero/film/the-jungle-book-2016/,2.5,,2016-11-15
2016-11-16,Third Person,2013,https://letterboxd.com/jukeboxhero/film/third-person/,3.5,,2016-11-15
2016-11-17,Mystic River,2003,https://letterboxd.com/jukeboxhero/film/mystic-river/,4,,2016-11-16
2016-11-17,Milk,2008,https://letterboxd.com/jukeboxhero/film/milk-2008/,3,,2016-11-16
2016-11-18,Blow,2001,https://letterboxd.com/jukeboxhero/film/blow/,3.5,,2016-11-17
2016-11-18,Fantastic Beasts and Where to Find Them,2016,https://letterboxd.com/jukeboxhero/film/fantastic-beasts-and-where-to-find-them/,3,,2016-11-17
2016-11-20,"Monsters, Inc.",2001,https://letterboxd.com/jukeboxhero/film/monsters-inc/,2.5,,2016-11-20
2016-11-21,Insurgent,2015,https://letterboxd.com/jukeboxhero/film/insurgent/,1.5,,2016-11-20
2016-11-21,Allegiant,2016,https://letterboxd.com/jukeboxhero/film/allegiant/,1,,2016-11-20
2016-11-22,The Iron Giant,1999,https://letterboxd.com/jukeboxhero/film/the-iron-giant/,3,,2016-11-21
2016-11-22,Eddie the Eagle,2016,https://letterboxd.com/jukeboxhero/film/eddie-the-eagle/,3,,2016-11-21
2016-11-23,Antz,1998,https://letterboxd.com/jukeboxhero/film/antz/,2.5,,2016-11-22
2016-11-23,The Shawshank Redemption,1994,https://letterboxd.com/jukeboxhero/film/the-shawshank-redemption/,5,,2016-11-22
2016-11-24,Ip Man,2008,https://letterboxd.com/jukeboxhero/film/ip-man/,3,,2016-11-23
2016-11-25,Ip Man 2,2010,https://letterboxd.com/jukeboxhero/film/ip-man-2/,2.5,,2016-11-24
2016-11-25,Ip Man 3,2015,https://letterboxd.com/jukeboxhero/film/ip-man-3/,1.5,,2016-11-24
2016-11-26,Arrival,2016,https://letterboxd.com/jukeboxhero/film/arrival-2016/,4,,2016-11-25
2016-11-27,Interstellar,2014,https://letterboxd.com/jukeboxhero/film/interstellar/,3.5,,2016-11-26
2016-11-27,Prometheus,2012,https://letterboxd.com/jukeboxhero/film/prometheus/,3,,2016-11-26
2016-11-27,Hotel Transylvania,2012,https://letterboxd.com/jukeboxhero/film/hotel-transylvania/,3,,2016-11-26
2016-11-27,Alice in Wonderland,1951,https://letterboxd.com/jukeboxhero/film/alice-in-wonderland-1951/,3,,2016-11-26
2016-11-28,The Bling Ring,2013,https://letterboxd.com/jukeboxhero/film/the-bling-ring/,2,,2016-11-27
2016-11-28,8½,1963,https://letterboxd.com/jukeboxhero/film/8/,,,2016-11-27
2016-11-28,The Green Mile,1999,https://letterboxd.com/jukeboxhero/film/the-green-mile/,3.5,,2016-11-27
2016-11-29,Ed Wood,1994,https://letterboxd.com/jukeboxhero/film/ed-wood/,4,,2016-11-28
2016-11-29,M,1931,https://letterboxd.com/jukeboxhero/film/m/,,,2016-11-28
2016-11-30,Super Size Me,2004,https://letterboxd.com/jukeboxhero/film/super-size-me/,,,2016-11-29
2016-11-30,Hannibal,2001,https://letterboxd.com/jukeboxhero/film/hannibal/,2.5,,2016-11-29
2016-12-01,Inside Llewyn Davis,2013,https://letterboxd.com/jukeboxhero/film/inside-llewyn-davis/,5,,2016-11-30
2016-12-01,Sharknado 4: The 4th Awakens,2016,https://letterboxd.com/jukeboxhero/film/sharknado-4-the-4th-awakens/,0.5,,2016-11-30
2016-12-02,Red Dragon,2002,https://letterboxd.com/jukeboxhero/film/red-dragon/,3.5,,2016-12-01
2016-12-02,Into the Woods,2014,https://letterboxd.com/jukeboxhero/film/into-the-woods-2014/,2.5,,2016-12-01
2016-12-06,The Life Aquatic with Steve Zissou,2004,https://letterboxd.com/jukeboxhero/film/the-life-aquatic-with-steve-zissou/,2.5,,2016-12-05
2016-12-07,Willy Wonka & the Chocolate Factory,1971,https://letterboxd.com/jukeboxhero/film/willy-wonka-the-chocolate-factory/,3,,2016-12-06
2016-12-07,Jingle All the Way,1996,https://letterboxd.com/jukeboxhero/film/jingle-all-the-way/,2,,2016-12-06
2016-12-08,The Darjeeling Limited,2007,https://letterboxd.com/jukeboxhero/film/the-darjeeling-limited/,3,,2016-12-07
2016-12-08,Hotel Chevalier,2007,https://letterboxd.com/jukeboxhero/film/hotel-chevalier/,,,2016-12-07
2016-12-08,Selma,2014,https://letterboxd.com/jukeboxhero/film/selma/,3,,2016-12-07
2016-12-09,Frankenweenie,2012,https://letterboxd.com/jukeboxhero/film/frankenweenie-2012/,3,,2016-12-08
2016-12-09,The Terminal,2004,https://letterboxd.com/jukeboxhero/film/the-terminal/,3.5,,2016-12-08
2016-12-10,Everybody Wants Some,2016,https://letterboxd.com/jukeboxhero/film/everybody-wants-some/,3.5,,2016-12-09
2016-12-13,Jaws,1975,https://letterboxd.com/jukeboxhero/film/jaws/,4,,2016-12-12
2016-12-13,Jaws 2,1978,https://letterboxd.com/jukeboxhero/film/jaws-2/,1.5,,2016-12-12
2016-12-15,Jaws 3,1983,https://letterboxd.com/jukeboxhero/film/jaws-3/,1,,2016-12-14
2016-12-15,Jaws: The Revenge,1987,https://letterboxd.com/jukeboxhero/film/jaws-the-revenge/,0.5,,2016-12-14
2016-12-16,Rogue One: A Star Wars Story,2016,https://letterboxd.com/jukeboxhero/film/rogue-one-a-star-wars-story/,4,,2016-12-15
2016-12-17,Snow White and the Seven Dwarfs,1937,https://letterboxd.com/jukeboxhero/film/snow-white-and-the-seven-dwarfs/,2.5,,2016-12-16
2016-12-19,The Wizard of Oz,1939,https://letterboxd.com/jukeboxhero/film/the-wizard-of-oz-1939/,3,,2016-12-18
2016-12-21,A Single Man,2009,https://letterboxd.com/jukeboxhero/film/a-single-man/,3,,2016-12-20
2016-12-24,The Nightmare Before Christmas,1993,https://letterboxd.com/jukeboxhero/film/the-nightmare-before-christmas/,3.5,,2016-12-23
2016-12-24,Cinderella,1950,https://letterboxd.com/jukeboxhero/film/cinderella/,2.5,,2016-12-23
2016-12-27,Love Actually,2003,https://letterboxd.com/jukeboxhero/film/love-actually/,3.5,,2016-12-25
2016-12-27,Little Lord Fauntleroy,1980,https://letterboxd.com/jukeboxhero/film/little-lord-fauntleroy-1980/,2.5,,2016-12-26
2016-12-29,Star Wars,1977,https://letterboxd.com/jukeboxhero/film/star-wars/,5,,2016-12-29
